tim.c:33:6:MX_TIM3_Init	56	static
tim.c:66:6:MX_TIM4_Init	56	static
tim.c:99:6:MX_TIM6_Init	16	static
tim.c:121:6:MX_TIM7_Init	16	static
tim.c:143:6:HAL_TIM_Encoder_MspInit	48	static
tim.c:197:6:HAL_TIM_Base_MspInit	16	static
tim.c:232:6:HAL_TIM_Encoder_MspDeInit	0	static
tim.c:273:6:HAL_TIM_Base_MspDeInit	0	static
